[
    {
        "name": "Microsoft Lumia 950 XL Dual Sim Black",
        "price": 17999,
        "available": true
    },
    {
        "name": "Samsung Galaxy S6 SS 32GB G920 Blue",
        "price": 15999,
        "available": true
    },
    {
        "name": "LG Google Nexus 5X 16GB Black",
        "price": 12444,
        "available": false
    },
    {
        "name": "Lenovo Vibe S1 Gold",
        "price": 8999,
        "available": true
    },
    {
        "name": "Samsung Galaxy Note 5 N920 Black",
        "price": 19999,
        "available": false
    }
]